{
  "monopattini": [
    {
      "id": 1,
      "name": "XIAOMI MI ELECTRIC",
      "image": "https://images-na.ssl-images-amazon.com/images/I/31mIaWT%2B5vL._AC_SY355_.jpg",
      "peso": 12.5,
      "autonomiakl": "30kl",
      "velocita": 25,
      "carico": 120,
      "batteria": 250,
      "caricaBatteria": 5,
      "prezzo": [349, 370],
      "dimensioni": "108 x 43 x 114cm",
      "dimensioniRipiegato": "108 x 43 x 49 cm",
      "extra": "Ricarica autonoma tramite sistema di recupero di energia cinetica, veloce, facile da piegare, cavalletto, ruote a camera ad aria che ammortizzano le vibrazioni dell'asfalto, faro LED anteriore, faro posteriore LED che si accende alla frenata, pulsante di accellerazione sul manubrio destro che si aziona con il pollice"
    },
    {
      "id": 2,
      "name": "REVOE STREET MOTION TECH",
      "image": "https://images-eu.ssl-images-amazon.com/images/I/71-QpLK5SvL.jpg",
      "peso": 9.5,
      "autonomia": 20,
      "velocita": 22,
      "carico": 100,
      "batteria": 250,
      "caricaBatteria": 3,
      "prezzo": [190, 252],
      "extra": "LED ottimi, molto comodo nel trasporto, "
    },
    {
      "id": 3,
      "name": "PULSE SONIC",
      "image": "https://www.energekoveicolielettrici.it/wp-content/uploads/2016/12/PulseSonic.jpg",
      "peso": 15,
      "autonomia": 40,
      "velocita": 20,
      "carico": 80,
      "batteria": 200,
      "caricaBatteriam": "40min",
      "prezzo": [119, 223],
      "dimensioni": "94 x 52 x 91 cm",
      "extra": "accelleratore a monopola, ruote gonfiabili Anteriore: 200 millimetri diametro, posteriore: 140, comodo nel trasporto"
    },
    {
      "id": 4,
      "name": "NINEBOT SEGWAY ES1",
      "image": "https://i.ebayimg.com/images/g/ql4AAOSwvtxdMYv9/s-l300.jpg",
      "peso": 11.3,
      "autonomiakl": "25km",
      "velocita": 25,
      "carico": 100,
      "batteria": 187,
      "caricaBatteria": 3.5,
      "prezzo": [289, 380],
      "dimensioni": "102 × 43 × 113 cm",
      "dimensioniRipiegato": "113 × 43 × 40 cm",
      "extra": "WATERPROOF, cruise control, 3 speed limits( LIMIT: tramite app per smartphone si può impostare la velocità massima che il monopattino può raggiungere, NORMAL: raggiunge il massimo della velocità, SPORT: raggiunge il massimo della velocità ma con un'accellerazione maggiore, LED illumina asfalto, facile da piegare e trasportare"
    },
    {
      "id": 5,
      "name": "NINEBOT SEGWAY ES2",
      "image": "https://www.hoverboardelettrici.it/wp-content/uploads/2019/04/Segway-Ninebot-ES2.jpg",
      "peso": 11.3,
      "autonomiakl": "25km",
      "velocita": 25,
      "carico": 100,
      "batteria": 300,
      "caricaBatteria": 3.5,
      "prezzo": [400, 500],
      "dimensioni": "102 × 43 × 113 cm",
      "dimensioniRipiegato": "113 × 43 × 40 cm",
      "extra": "stesse caratteristiche del modello ES1 ma con possibilità di una seconda batteria aggiuntiva di Ninebot KickScooter ES2 by Segway che ti permette di raggiungere più velocemente la tua destinazione (30 km/h)* e di coprire maggiori distanze con un ciclo completo di ricarica (45 km). Questo prodotto aumenta la velocità di +5 km/h"
    },
    {
      "id": 6,
      "name": "Ninebot KickScooter MAX G30",
      "image": "https://static.fitmax.it/media/catalog/product/cache/1/image/650x/040ec09b1e35df139433887a97daa66f/4/1/414ec249d8f4be886182b7bf170b0b8d4.jpg",
      "peso": 19.1,
      "autonomiakl": "65km",
      "velocita": 25,
      "carico": 100,
      "batteria": 350,
      "caricaBatteria": 6,
      "prezzo": [619, 800],
      "dimensioni": "116.7 × 47.2 × 120.3 cm",
      "dimensioniRipiegato": "116.7 × 47.2 × 53.4 cm",
      "extra": "Pneumatici resistenti da 10 pollici e il telaio facilmente pieghevole, ciascun pneumatico è dotato di uno strato interno aggiuntivo di gelatina protettiva per diminuire il già basso rischio di foratura. Frenata rigenerativa per il recupero di energia. Ricarica facile e rapida con un cavo venduto separatamente. Campanello, Pneumatici gonfiabili. App monitor. Connessione bluetooth. Caricabatterie incorporato per una ricarica rapida"
    },
    {
      "id": 7,
      "name": "Ninebot KickScooter E22E",
      "image": "https://m.media-amazon.com/images/I/31mIaWT%205vL.jpg",
      "peso": 13.5,
      "autonomiakl": "22km",
      "velocita": 20,
      "carico": 100,
      "batteria": 300,
      "caricaBatteria": 3.5,
      "prezzo": [400, 500],
      "dimensioni": "111 x 42 x 112 cm",
      "dimensioniRipiegato": "114 x 42 x 36 cm",
      "extra": "con batteria aggiuntiva: +23 km e + 5km/h, i pneumatici Flat-Free offrono un'esperienza di guida eccezionale, simulando il comfort e l'assorbimento degli urti tipici dei pneumatici, oltre ad essere a prova di foratura. Ninebot KickScooter E22E si piega in un solo passaggio e si adatta facilmente al bagagliaio della tua auto. Catarifrangenti frontali, schermo a LED a colori,  "
    }
  ]
}
